{
  "images" : [
    {
      "idiom" : "universal",
      "filename" : "right-arrow (1).png",
      "scale" : "1x"
    },
    {
      "idiom" : "universal",
      "filename" : "right-arrow (2).png",
      "scale" : "2x"
    },
    {
      "idiom" : "universal",
      "filename" : "right-arrow (3).png",
      "scale" : "3x"
    }
  ],
  "info" : {
    "version" : 1,
    "author" : "xcode"
  }
}